Prices - Nominal house prices data in Luxembourg
…
}
commune_level_data <- get_laspeyeres(commune_level_data)

commune_level_data

# A tibble: 1,171 × 9
    year locality  n_offers average_price_nomina…¹ average_price_m2_nom…²     p0
   <int> <chr>        <int>                  <dbl>                  <dbl>  <dbl>
 1  2010 Baschara…      192                593698.                  3604. 5.94e5
 2  2010 Beaufort       266                461160.                  2903. 4.61e5
 3  2010 Bech            65                621760.                  3281. 6.22e5
 4  2010 Beckerich      176                444499.                  2868. 4.44e5
 5  2010 Berdorf        111                504041.                  3056. 5.04e5
 6  2010 Bertrange      264                795339.                  4266. 7.95e5
 7  2010 Bettembo…      304                555628.                  3343. 5.56e5
 8  2010 Bettendo…       94                495074.                  3235. 4.95e5
 9  2010 Betzdorf       119                625914.                  3343. 6.26e5
10  2010 Bissen          70                516466.                  3322. 5.16e5
# ℹ 1,161 more rows
# ℹ abbreviated names: ¹​average_price_nominal_euros,
#   ²​average_price_m2_nominal_euros
# ℹ 3 more variables: p0_m2 <dbl>, pl <dbl>, pl_m2 <dbl>
…
